<?xml version="1.0" encoding="UTF-8"?>
<session version="1.0">
<refactoring comment="Delete 3 resources" deleteContents="false" description="Delete 3 resources" element1="/module-controller" element2="/module-dao" element3="/module-service" flags="7" id="org.eclipse.ltk.core.refactoring.delete.resources" resources="3" stamp="1561949918056"/>
</session>